<?xml version="1.0" standalone="no"?>
<!DOCTYPE svg PUBLIC "-//W3C//DTD SVG 20010904//EN"
 "http://www.w3.org/TR/2001/REC-SVG-20010904/DTD/svg10.dtd">
<svg version="1.0" xmlns="http://www.w3.org/2000/svg"
 width="344.000000pt" height="344.000000pt" viewBox="0 0 344.000000 344.000000"
 preserveAspectRatio="xMidYMid meet">
<metadata>
Created by potrace 1.14, written by Peter Selinger 2001-2017
</metadata>
<g transform="translate(0.000000,344.000000) scale(0.100000,-0.100000)"
fill="#000000" stroke="none">
<path d="M1875 2944 c-38 -8 -106 -33 -150 -54 -152 -74 -261 -184 -342 -347
l-46 -93 -107 0 c-122 0 -197 -16 -282 -62 -121 -64 -208 -168 -250 -299 -21
-67 -22 -68 -67 -79 -112 -28 -213 -115 -250 -216 -12 -30 -21 -59 -21 -64 0
-6 59 -10 146 -10 133 0 145 -1 142 -17 -3 -16 -20 -18 -151 -21 -81 -1 -147
-7 -147 -12 0 -5 15 -10 33 -12 44 -4 44 -32 -1 -36 -33 -3 -34 -4 -26 -45 33
-199 181 -327 378 -327 l53 0 7 -60 c8 -67 4 -80 -25 -80 -11 0 -38 -17 -61
-38 -37 -35 -42 -45 -45 -93 -3 -42 0 -61 16 -87 35 -55 74 -72 171 -73 l85 0
35 -43 c82 -99 207 -178 335 -211 77 -20 232 -20 310 0 97 24 214 89 293 161
l71 65 54 -40 c74 -56 140 -83 218 -89 138 -10 247 35 348 144 l67 72 55 -15
c73 -20 168 -11 236 22 63 31 132 105 170 183 25 51 28 67 28 162 0 98 -2 110
-32 171 -18 35 -43 75 -56 87 l-25 23 24 67 c13 37 24 81 24 99 0 39 9 63 23
63 23 0 80 55 98 94 23 52 24 100 0 151 -17 38 -81 105 -100 105 -5 0 -12 17
-16 38 -8 51 -35 93 -80 128 -52 39 -143 46 -203 15 -30 -15 -42 -18 -42 -9 0
8 -11 29 -24 49 -13 19 -29 55 -36 80 -19 76 -59 168 -101 234 -39 61 -43 65
-79 65 -23 0 -40 5 -43 14 -7 18 1 26 27 26 21 1 21 1 2 15 -13 10 -44 15 -92
15 -71 0 -101 13 -73 31 8 5 34 9 58 9 78 0 32 19 -54 22 -63 2 -80 6 -80 18
0 10 14 17 45 21 l45 5 -59 28 c-128 59 -299 79 -431 50z m290 -104 c0 -18
-62 -27 -77 -12 -18 18 3 33 40 30 25 -2 37 -8 37 -18z m80 0 c0 -18 -33 -26
-47 -12 -6 6 -7 15 -3 22 10 16 50 8 50 -10z m83 -62 c3 -15 -4 -18 -42 -18
-46 0 -69 16 -45 31 24 16 83 6 87 -13z m140 -65 c-3 -16 -21 -18 -182 -21
-102 -1 -184 2 -189 7 -25 25 10 31 189 31 171 0 185 -1 182 -17z m183 -376
c46 -25 89 -84 89 -124 0 -36 17 -36 60 -2 52 42 128 51 178 20 41 -26 72 -77
72 -117 0 -27 -4 -32 -30 -38 -37 -7 -80 -48 -80 -76 0 -28 12 -25 32 10 36
63 119 61 176 -4 41 -47 48 -94 23 -151 -36 -81 -51 -85 -312 -85 -189 0 -229
-2 -239 -15 -7 -8 -23 -15 -35 -15 l-23 0 -4 253 c-3 235 -5 255 -26 301 -18
39 -20 51 -10 58 24 15 85 8 129 -15z m-331 -46 c19 -10 48 -37 64 -59 27 -37
30 -52 34 -133 3 -59 1 -94 -7 -102 -15 -15 -14 -50 1 -65 9 -9 9 -15 0 -24
-16 -16 -16 -103 0 -128 9 -14 9 -24 0 -42 -8 -16 -13 -110 -14 -299 l-3 -276
-27 -35 c-51 -67 -60 -68 -411 -68 l-315 0 -41 27 c-26 17 -41 34 -41 47 0 31
-36 84 -72 106 -26 16 -45 20 -88 17 -30 -2 -64 -7 -75 -11 -15 -4 -25 2 -40
27 -18 29 -61 58 -108 71 -16 5 -17 34 -17 418 0 410 0 413 23 453 13 22 40
49 62 62 40 23 42 23 492 23 320 0 454 3 459 11 9 15 78 4 124 -20z m-1592
-458 c-4 -20 -54 -31 -70 -15 -17 17 1 32 38 32 28 0 35 -4 32 -17z m0 -65 c3
-16 -7 -18 -97 -18 -56 0 -103 4 -106 10 -15 24 10 31 103 28 83 -3 97 -6 100
-20z m22 -62 c0 -26 -59 -36 -79 -13 -15 19 -4 27 41 27 26 0 38 -4 38 -14z
m140 -1 c0 -31 -112 -34 -118 -2 -3 15 5 17 57 17 47 0 61 -3 61 -15z m-395
-65 c0 -18 -33 -26 -47 -12 -6 6 -7 15 -3 22 10 16 50 8 50 -10z m390 0 c0
-13 -27 -15 -174 -18 -168 -2 -202 3 -186 27 4 8 62 11 183 9 149 -3 177 -5
177 -18z m-267 -62 c3 -15 -4 -18 -42 -18 -46 0 -69 16 -45 31 24 16 83 6 87
-13z m591 -292 c32 -17 55 -48 65 -88 8 -34 15 -35 62 -3 42 29 82 32 124 10
51 -26 82 -115 41 -115 -19 0 -61 -43 -61 -61 0 -5 7 -9 15 -9 8 0 15 4 15 9
0 5 7 17 16 25 45 45 134 -12 134 -86 0 -32 -7 -47 -34 -74 -33 -33 -36 -34
-119 -34 -47 0 -89 -4 -92 -10 -8 -13 -72 -13 -80 0 -8 14 -58 13 -73 -2 -8
-8 -15 -8 -27 2 -14 11 -20 11 -37 1 -15 -9 -23 -10 -31 -2 -7 7 -74 11 -185
11 l-174 0 -34 34 c-47 47 -47 95 0 142 28 28 42 34 75 34 37 0 42 3 55 35 20
46 57 61 99 40 48 -24 57 -20 57 26 0 100 100 161 189 115z"/>
<path d="M1895 2063 c-309 -47 -457 -236 -456 -583 0 -98 3 -116 18 -128 24
-19 256 -10 336 12 251 69 368 245 371 558 0 69 -3 130 -7 135 -9 9 -213 14
-262 6z"/>
</g>
</svg>
